[gd_scene load_steps=16 format=1]

[ext_resource path="res://tilesets/CiudadFrancisco.gd" type="Script" id=1]
[ext_resource path="res://addons/autotile/layer.gd" type="Script" id=2]
[ext_resource path="res://addons/autotile/icon.png" type="Texture" id=3]
[ext_resource path="res://texturas/Outside_A2.png" type="Texture" id=4]
[ext_resource path="res://texturas/SF_Outside_A4.xml" type="TileSet" id=5]
[ext_resource path="res://texturas/SF_Outside_A4.png" type="Texture" id=6]
[ext_resource path="res://texturas/SF_Outside_B.xml" type="TileSet" id=7]
[ext_resource path="res://texturas/SF_Outside_A5.xml" type="TileSet" id=8]
[ext_resource path="res://texturas/SF_Outside_C.xml" type="TileSet" id=9]
[ext_resource path="res://personajes/juancarlos_caminar.png" type="Texture" id=10]
[ext_resource path="res://texturas/Inside_B.xml" type="TileSet" id=11]
[ext_resource path="res://audio/bgm/001bgm.ogg" type="AudioStream" id=12]

[sub_resource type="ConvexPolygonShape2D" id=1]

custom_solver_bias = 0.0
points = Vector2Array( -25, -24, 23, -24, 23, 24, -25, 24 )

[sub_resource type="RectangleShape2D" id=2]

custom_solver_bias = 0.0
extents = Vector2( 10, 18.5816 )

[sub_resource type="RectangleShape2D" id=3]

custom_solver_bias = 0.0
extents = Vector2( 17.5981, 10 )

[node name="CiudadFrancisco" type="Node2D"]

script/script = ExtResource( 1 )

[node name="Hierba" type="StaticBody2D" parent="."]

input/pickable = false
collision/layers = 1
collision/mask = 1
constant_linear_velocity = Vector2( 0, 0 )
constant_angular_velocity = 0.0
friction = 1.0
bounce = 0.0
script/script = ExtResource( 2 )
__meta__ = {
"_editor_icon": ExtResource( 3 )
}
texture = ExtResource( 4 )
tile_size = 48
draw_center = true
region_offset = Vector2( 0, 0 )
solid = false
solid_offset = Vector2( 0, 0 )
autotile/data = [ -1, 18, -9, 16, -9, 15, 11, 17, 11, 18, 11, 19, 11, 20, -7, 0, -7, 1, -7, 2, -7, 3, -6, 3, -6, 2, 11, 13, -8, 1, -10, 20, 9, 19, -9, 5, 2, 13, 10, 15, 9, 15, 9, 14, 8, 14, 8, 13, 8, 15, -9, 4, -9, 2, -9, 1, -9, 0, -5, 3, 1, 0, 1, 1, 1, 2, 3, 4, 3, 5, 6, 6, 7, 6, 8, 6, 9, 6, 10, 0, 10, 1, 10, 2, 10, 3, -2, 14, -9, 11, 10, 4, -8, 3, 0, 16, 10, 16, -8, 2, 5, 2, 4, 2, 3, 2, 11, 15, 11, 14, 6, 2, 7, 2, 8, 2, 9, 2, 9, 3, 8, 3, 7, 3, 2, 1, 3, 1, 6, 17, -3, 17, -3, 16, -2, 16, -2, 15, -3, 15, -3, 14, -2, 20, -3, 20, -4, 20, -5, 20, -6, 20, -7, 20, -8, 20, -2, 13, 0, 15, -9, 7, -9, 6, 8, 16, 9, 16, 4, 1, 5, 1, 6, 1, 7, 1, 8, 1, 9, 1, 9, 0, 8, 0, 7, 0, 6, 0, 5, 0, 4, 0, 3, 0, -9, 14, 7, 4, 2, 0, 9, 13, 10, 13, 10, 14, 6, 13, 5, 13, 4, 13, 0, 13, 0, 14, 9, 20, 3, 13, 3, 14, 2, 14, 1, 14, -9, 8, 1, 15, 2, 15, 3, 15, 4, 15, 4, 14, 5, 14, -8, 14, -9, 12, 6, 14, 6, 15, 6, 19, 6, 18, 7, 18, 7, 17, -10, 13, -10, 12, -11, 12, -11, 11, -10, 11, -10, 10, -11, 10, -11, 9, -10, 9, -10, 8, -11, 8, -11, 7, -10, 7, -10, 6, -11, 6, -11, 5, -10, 5, -10, 4, -11, 4, -11, 3, -10, 3, -10, 2, -11, 2, -11, 1, -10, 1, -10, 0, -11, 0, -2, 19, -3, 19, -3, 18, -2, 18, 2, 2, 7, 16, 6, 16, -2, 17, -11, 13, -11, 14, -10, 14, -10, 15, -11, 15, -11, 16, -10, 16, -10, 17, -11, 17, -11, 18, -10, 18, -10, 19, -11, 19, -11, 20, -1, 13, 4, 5, -5, 2, -5, 1, -5, 0, -6, 0, 10, 19, 10, 20, 7, 5, 8, 5, 9, 5, 9, 4, 8, 4, -1, 20, -1, 19, -8, 0, -9, 18, -9, 19, -9, 20, 6, 3, 5, 3, 4, 3, 4, 4, 5, 4, 6, 4, 11, 16, 10, 5, 10, 6, 5, 6, 4, 6, 3, 6, 3, 3, 2, 3, 1, 3, 6, 20, 6, 5, 8, 18, 9, 18, 5, 16, 7, 13, 10, 18, 10, 17, 9, 17, 8, 17, -6, 1, -1, 14, -1, 15, -1, 16, -1, 17, -9, 17, 5, 5, -9, 3, 7, 15, 7, 14, 5, 15, -9, 13, -8, 13, -7, 13, -6, 13, -5, 13, -4, 13, -3, 13, -9, 10, -9, 9, 1, 13 ]

[node name="Anden" type="StaticBody2D" parent="."]

input/pickable = false
collision/layers = 1
collision/mask = 1
constant_linear_velocity = Vector2( 0, 0 )
constant_angular_velocity = 0.0
friction = 1.0
bounce = 0.0
script/script = ExtResource( 2 )
__meta__ = {
"_editor_icon": ExtResource( 3 )
}
texture = ExtResource( 4 )
tile_size = 48
draw_center = true
region_offset = Vector2( 288, 288 )
solid = false
solid_offset = Vector2( 288, 288 )
autotile/data = [ 19, 17, 19, 15, 19, 16, 20, 16, 20, 29, 20, 28, 19, 28, 9, 21, 11, 29, 10, 29, 10, 21, 20, 15, 20, 14, 19, 14, 7, 12, 13, 19, 2, 12, 8, 12, 9, 12, 10, 12, 11, 12, 12, 12, 13, 12, 19, 29, 13, 28, 13, 29, 12, 29, 12, 28, 11, 28, 10, 28, 9, 28, 9, 29, 8, 29, 8, 28, -7, 28, -8, 28, -8, 29, -9, 29, -9, 28, -10, 28, -10, 29, -11, 29, -11, 28, 19, 21, 19, 20, 19, 19, 19, 22, 20, 22, 11, 21, 11, 22, 10, 22, -7, 21, -7, 22, -8, 22, -8, 21, 6, 22, 6, 21, 5, 21, 5, 22, 4, 22, 4, 21, 3, 21, 3, 22, 2, 22, 2, 21, 19, 18, 20, 18, 20, 17, 20, 19, 20, 20, 20, 21, 20, 1, 20, 0, 19, 0, 12, 15, 12, 16, -9, 21, -9, 22, -10, 22, -11, 22, -11, 21, -10, 21, 12, 19, 12, 20, 13, 20, -7, 29, -6, 29, -6, 28, 13, 16, 13, 15, 13, 17, 12, 17, 12, 18, 13, 18, -4, 29, -4, 28, -3, 28, 12, 14, 13, 14, 13, 13, 12, 13, -5, 29, -3, 29, 4, 28, 4, 29, 5, 29, 5, 28, 6, 28, 7, 28, 7, 29, 6, 29, -6, 22, -5, 22, 0, 12, -6, 21, -5, 21, -4, 21, -4, 22, -3, 22, -3, 21, -2, 21, -2, 29, -2, 28, -1, 28, 1, 28, 1, 29, 2, 29, 3, 29, 3, 28, 3, 12, 4, 12, 5, 12, 1, 22, 0, 22, 0, 21, 2, 28, 13, 21, 12, 21, 12, 22, 13, 22, -1, 29, 0, 29, 0, 28, -2, 22, -1, 22, -1, 21, 9, 22, 8, 22, 8, 21, 7, 21, 7, 22, 19, 13, 19, 12, 20, 13, 20, 12, 20, 11, 19, 11, 19, 9, 19, 10, 20, 10, 20, 9, 20, 8, 19, 8, 19, 7, 1, 12, 1, 21, 20, 7, 20, 6, 19, 6, 19, 5, 20, 5, 20, 3, 20, 4, 19, 4, 19, 3, 6, 12, -5, 28, 19, 2, 19, 1, 20, 2 ]

[node name="EdificioFrancisco" type="Node2D" parent="."]

editor/display_folded = true

[node name="EdificioPiso1" type="TileMap" parent="EdificioFrancisco"]

mode = 0
tile_set = ExtResource( 5 )
cell/size = Vector2( 48, 48 )
cell/quadrant_size = 48
cell/custom_transform = Matrix32( 1, 0, 0, 1, 0, 0 )
cell/half_offset = 2
cell/tile_origin = 0
cell/y_sort = false
collision/use_kinematic = false
collision/friction = 1.0
collision/bounce = 0.0
collision/layers = 1
collision/mask = 1
occluder/light_mask = 1
tile_data = IntArray( 393227, 54, 393229, 55 )

[node name="EdificioPisos" type="StaticBody2D" parent="EdificioFrancisco"]

input/pickable = false
collision/layers = 1
collision/mask = 1
constant_linear_velocity = Vector2( 0, 0 )
constant_angular_velocity = 0.0
friction = 1.0
bounce = 0.0
script/script = ExtResource( 2 )
__meta__ = {
"_editor_icon": ExtResource( 3 )
}
texture = ExtResource( 6 )
tile_size = 48
draw_center = true
region_offset = Vector2( 288, 96 )
solid = false
solid_offset = Vector2( 0, 0 )
autotile/data = [ 11, 5, 12, 5, 13, 5, 13, 4, 12, 4, 11, 4, 11, 3, 12, 3, 13, 3, 13, 2, 12, 2, 11, 2 ]

[node name="EdificioTerraza" type="StaticBody2D" parent="EdificioFrancisco"]

input/pickable = false
collision/layers = 1
collision/mask = 1
constant_linear_velocity = Vector2( 0, 0 )
constant_angular_velocity = 0.0
friction = 1.0
bounce = 0.0
script/script = ExtResource( 2 )
__meta__ = {
"_editor_icon": ExtResource( 3 )
}
texture = ExtResource( 6 )
tile_size = 48
draw_center = true
region_offset = Vector2( 288, 0 )
solid = false
solid_offset = Vector2( 288, 0 )
autotile/data = [ 11, 0, 12, 0, 13, 0, 13, 1, 12, 1, 11, 1 ]

[node name="Colegio" type="Node2D" parent="."]

editor/display_folded = true

[node name="EdificioPisos" type="StaticBody2D" parent="Colegio"]

input/pickable = false
collision/layers = 1
collision/mask = 1
constant_linear_velocity = Vector2( 0, 0 )
constant_angular_velocity = 0.0
friction = 1.0
bounce = 0.0
script/script = ExtResource( 2 )
__meta__ = {
"_editor_icon": ExtResource( 3 )
}
texture = ExtResource( 6 )
tile_size = 48
draw_center = true
region_offset = Vector2( 576, 576 )
solid = false
solid_offset = Vector2( 576, 576 )
autotile/data = [ -4, 0, -3, 0, -2, 0, -1, 0, 0, 0, 0, 1, -1, 1, -2, 1, -3, 1, -4, 1, -4, 2, -3, 2, -2, 2, -1, 2, 0, 2, -4, 3, -3, 3, -2, 3, -1, 3, 0, 3 ]

[node name="EdificioPiso1" type="TileMap" parent="Colegio"]

mode = 0
tile_set = ExtResource( 7 )
cell/size = Vector2( 48, 48 )
cell/quadrant_size = 48
cell/custom_transform = Matrix32( 1, 0, 0, 1, 0, 0 )
cell/half_offset = 2
cell/tile_origin = 0
cell/y_sort = false
collision/use_kinematic = false
collision/friction = 1.0
collision/bounce = 0.0
collision/layers = 1
collision/mask = 1
occluder/light_mask = 1
tile_data = IntArray( 131095, 0, 262142, 83 )

[node name="EdificioGris" type="Node2D" parent="."]

editor/display_folded = true

[node name="AutoTileLayer 2" type="StaticBody2D" parent="EdificioGris"]

input/pickable = false
collision/layers = 1
collision/mask = 1
constant_linear_velocity = Vector2( 0, 0 )
constant_angular_velocity = 0.0
friction = 1.0
bounce = 0.0
script/script = ExtResource( 2 )
__meta__ = {
"_editor_icon": ExtResource( 3 )
}
texture = ExtResource( 6 )
tile_size = 48
draw_center = true
region_offset = Vector2( 384, 0 )
solid = false
solid_offset = Vector2( 384, 0 )
autotile/data = [ -8, 14, -7, 14, -6, 14, -5, 14, -4, 14, -4, 15, -5, 15, -6, 15, -7, 15, -8, 15 ]

[node name="AutoTileLayer" type="StaticBody2D" parent="EdificioGris"]

input/pickable = false
collision/layers = 1
collision/mask = 1
constant_linear_velocity = Vector2( 0, 0 )
constant_angular_velocity = 0.0
friction = 1.0
bounce = 0.0
script/script = ExtResource( 2 )
__meta__ = {
"_editor_icon": ExtResource( 3 )
}
texture = ExtResource( 6 )
tile_size = 48
draw_center = true
region_offset = Vector2( 384, 96 )
solid = false
solid_offset = Vector2( 384, 96 )
autotile/data = [ -8, 18, -7, 18, -6, 18, -5, 18, -4, 18, -8, 17, -7, 17, -6, 17, -5, 17, -4, 17, -8, 16, -7, 16, -6, 16, -5, 16, -4, 16 ]

[node name="TileMap" type="TileMap" parent="EdificioGris"]

mode = 0
tile_set = ExtResource( 5 )
cell/size = Vector2( 48, 48 )
cell/quadrant_size = 48
cell/custom_transform = Matrix32( 1, 0, 0, 1, 0, 0 )
cell/half_offset = 2
cell/tile_origin = 0
cell/y_sort = false
collision/use_kinematic = false
collision/friction = 1.0
collision/bounce = 0.0
collision/layers = 1
collision/mask = 1
occluder/light_mask = 1
tile_data = IntArray( 1310712, 56, 1310713, 57, 1310715, 56, 1310716, 57 )

[node name="PuestoSalud" type="Node2D" parent="."]

editor/display_folded = true

[node name="Piso" type="StaticBody2D" parent="PuestoSalud"]

input/pickable = false
collision/layers = 1
collision/mask = 1
constant_linear_velocity = Vector2( 0, 0 )
constant_angular_velocity = 0.0
friction = 1.0
bounce = 0.0
script/script = ExtResource( 2 )
__meta__ = {
"_editor_icon": ExtResource( 3 )
}
texture = ExtResource( 6 )
tile_size = 48
draw_center = true
region_offset = Vector2( 672, 576 )
solid = false
solid_offset = Vector2( 672, 576 )
autotile/data = [ 1, 19, 2, 19, 0, 19, 3, 19, 4, 19, 5, 19, 5, 20, 4, 20, 3, 20, 2, 20, 1, 20, 0, 20 ]

[node name="Terraza" type="StaticBody2D" parent="PuestoSalud"]

input/pickable = false
collision/layers = 1
collision/mask = 1
constant_linear_velocity = Vector2( 0, 0 )
constant_angular_velocity = 0.0
friction = 1.0
bounce = 0.0
script/script = ExtResource( 2 )
__meta__ = {
"_editor_icon": ExtResource( 3 )
}
texture = ExtResource( 6 )
tile_size = 48
draw_center = true
region_offset = Vector2( 672, 480 )
solid = false
solid_offset = Vector2( 672, 480 )
autotile/data = [ 0, 16, 1, 16, 2, 16, 3, 16, 4, 16, 5, 16, 5, 17, 5, 18, 4, 18, 4, 17, 3, 17, 3, 18, 2, 18, 2, 17, 0, 17, 0, 18, 1, 18, 1, 17 ]

[node name="TileMap" type="TileMap" parent="PuestoSalud"]

mode = 0
tile_set = ExtResource( 7 )
cell/size = Vector2( 48, 48 )
cell/quadrant_size = 48
cell/custom_transform = Matrix32( 1, 0, 0, 1, 0, 0 )
cell/half_offset = 2
cell/tile_origin = 0
cell/y_sort = false
collision/use_kinematic = false
collision/friction = 1.0
collision/bounce = 0.0
collision/layers = 1
collision/mask = 1
occluder/light_mask = 1
tile_data = IntArray( 851968, 45, 851969, 45, 851970, 45, 851971, 45, 851972, 45, 851973, 45, 851974, 45, 851975, 45, 851976, 45, 851977, 45, 851978, 45, 1245185, 133, 1245186, 133, 1245188, 19, 1310721, 149, 1310722, 149, 1310724, 116 )

[node name="Calles" type="TileMap" parent="."]

mode = 0
tile_set = ExtResource( 8 )
cell/size = Vector2( 48, 48 )
cell/quadrant_size = 48
cell/custom_transform = Matrix32( 1, 0, 0, 1, 0, 0 )
cell/half_offset = 2
cell/tile_origin = 0
cell/y_sort = false
collision/use_kinematic = false
collision/friction = 1.0
collision/bounce = 0.0
collision/layers = 1
collision/mask = 1
occluder/light_mask = 1
tile_data = IntArray( 14, 16, 15, 16, 16, 16, 17, 16, 18, 16, 65550, 16, 65551, 16, 65552, 16, 65553, 16, 65554, 16, 131086, 16, 131087, 16, 131088, 16, 131089, 16, 131090, 16, 196622, 16, 196623, 16, 196624, 16, 196625, 16, 196626, 16, 327672, 16, 327673, 16, 327674, 16, 327675, 16, 327676, 16, 327677, 16, 327678, 16, 327679, 16, 262144, 16, 262145, 16, 262146, 16, 262158, 16, 262159, 16, 262160, 16, 262161, 16, 262162, 16, 393208, 16, 393209, 16, 393210, 16, 393211, 16, 393212, 16, 393213, 16, 393214, 16, 393215, 16, 327680, 16, 327681, 16, 327682, 16, 327694, 16, 327695, 16, 327696, 16, 327697, 16, 327698, 16, 458744, 16, 458745, 16, 458746, 16, 458747, 16, 458748, 16, 458749, 16, 458750, 16, 458751, 16, 393216, 16, 393217, 16, 393218, 16, 393230, 16, 393231, 16, 393232, 16, 393233, 16, 393234, 16, 524280, 16, 524281, 16, 524282, 16, 524283, 16, 524284, 16, 524285, 16, 524286, 16, 524287, 16, 458752, 16, 458753, 16, 458754, 16, 458755, 16, 458756, 16, 458757, 16, 458758, 16, 458759, 16, 458760, 16, 458761, 16, 458762, 16, 458763, 36, 458764, 36, 458765, 36, 458766, 16, 458767, 16, 458768, 16, 458769, 16, 458770, 16, 589816, 16, 589817, 16, 589818, 16, 589819, 16, 589820, 16, 589821, 16, 589822, 16, 589823, 16, 524288, 16, 524289, 16, 524290, 16, 524291, 16, 524292, 16, 524293, 16, 524294, 16, 524295, 16, 524296, 16, 524297, 16, 524298, 16, 524299, 36, 524300, 36, 524301, 36, 524302, 16, 524303, 16, 524304, 16, 524305, 16, 524306, 16, 655352, 16, 655353, 16, 655354, 16, 655355, 16, 655356, 16, 655357, 16, 655358, 16, 655359, 16, 589824, 16, 589825, 16, 589826, 16, 589827, 16, 589828, 16, 589829, 16, 589830, 16, 589831, 16, 589832, 16, 589833, 16, 589834, 16, 589835, 36, 589836, 36, 589837, 36, 589838, 16, 589839, 16, 589840, 16, 589841, 16, 589842, 16, 720888, 16, 720889, 16, 720890, 16, 720891, 16, 720892, 16, 720893, 16, 720894, 16, 720895, 16, 655360, 16, 655361, 16, 655362, 16, 655363, 16, 655364, 16, 655365, 16, 655366, 16, 655367, 16, 655368, 16, 655369, 16, 655370, 16, 655371, 16, 655372, 16, 655373, 16, 655374, 16, 655375, 16, 655376, 16, 655377, 16, 655378, 16, 786424, 16, 786425, 16, 786426, 16, 786427, 16, 786428, 16, 786429, 16, 786430, 16, 786431, 16, 720896, 16, 720897, 16, 720898, 16, 720899, 16, 720900, 16, 720901, 16, 720902, 16, 720903, 16, 720904, 16, 720905, 16, 720906, 16, 720907, 16, 720908, 16, 720909, 16, 720910, 16, 720911, 16, 720912, 16, 720913, 16, 720914, 16, 851960, 16, 851961, 16, 851962, 16, 851963, 16, 851964, 16, 851965, 16, 851966, 16, 851967, 16, 786446, 16, 786447, 16, 786448, 16, 786449, 16, 786450, 16, 851982, 16, 851983, 16, 851984, 16, 851985, 16, 851986, 16, 917518, 16, 917519, 16, 917520, 16, 917521, 16, 917522, 16, 983054, 16, 983055, 16, 983056, 16, 983057, 16, 983058, 16, 1048590, 16, 1048591, 16, 1048592, 16, 1048593, 16, 1048594, 16, 1114126, 16, 1114127, 16, 1114128, 16, 1114129, 16, 1114130, 16, 1179662, 16, 1179663, 16, 1179664, 16, 1179665, 16, 1179666, 16, 1245198, 16, 1245199, 16, 1245200, 16, 1245201, 16, 1245202, 16, 1310734, 16, 1310735, 16, 1310736, 16, 1310737, 16, 1310738, 16, 1376270, 16, 1376271, 16, 1376272, 16, 1376273, 16, 1376274, 16, 1441806, 16, 1441807, 16, 1441808, 16, 1441809, 16, 1441810, 16, 1572853, 16, 1572854, 16, 1572855, 16, 1572856, 16, 1572857, 16, 1572858, 16, 1572859, 16, 1572860, 16, 1572861, 16, 1572862, 16, 1572863, 16, 1507328, 16, 1507329, 16, 1507330, 16, 1507331, 16, 1507332, 16, 1507333, 16, 1507334, 16, 1507335, 16, 1507336, 16, 1507337, 16, 1507338, 16, 1507339, 16, 1507340, 16, 1507341, 16, 1507342, 16, 1507343, 16, 1507344, 16, 1507345, 16, 1507346, 16, 1507347, 16, 1507348, 16, 1638389, 16, 1638390, 16, 1638391, 16, 1638392, 16, 1638393, 16, 1638394, 16, 1638395, 16, 1638396, 16, 1638397, 16, 1638398, 16, 1638399, 16, 1572864, 16, 1572865, 16, 1572866, 16, 1572867, 16, 1572868, 16, 1572869, 16, 1572870, 16, 1572871, 16, 1572872, 16, 1572873, 16, 1572874, 16, 1572875, 16, 1572876, 16, 1572877, 16, 1572878, 16, 1572879, 16, 1572880, 16, 1572881, 16, 1572882, 16, 1572883, 16, 1572884, 16, 1703925, 16, 1703926, 16, 1703927, 16, 1703928, 16, 1703929, 16, 1703930, 16, 1703931, 16, 1703932, 16, 1703933, 16, 1703934, 16, 1703935, 16, 1638400, 16, 1638401, 16, 1638402, 16, 1638403, 16, 1638404, 16, 1638405, 16, 1638406, 16, 1638407, 16, 1638408, 16, 1638409, 16, 1638410, 16, 1638411, 16, 1638412, 16, 1638413, 16, 1638414, 16, 1638415, 16, 1638416, 16, 1638417, 16, 1638418, 16, 1638419, 16, 1638420, 16, 1769461, 16, 1769462, 16, 1769463, 16, 1769464, 16, 1769465, 16, 1769466, 16, 1769467, 16, 1769468, 16, 1769469, 16, 1769470, 16, 1769471, 16, 1703936, 16, 1703937, 16, 1703938, 16, 1703939, 16, 1703940, 16, 1703941, 16, 1703942, 16, 1703943, 16, 1703944, 16, 1703945, 16, 1703946, 16, 1703947, 16, 1703948, 16, 1703949, 16, 1703950, 16, 1703951, 16, 1703952, 16, 1703953, 16, 1703954, 16, 1703955, 16, 1703956, 16, 1834997, 16, 1834998, 16, 1834999, 16, 1835000, 16, 1835001, 16, 1835002, 16, 1835003, 16, 1835004, 16, 1835005, 16, 1835006, 16, 1835007, 16, 1769472, 16, 1769473, 16, 1769474, 16, 1769475, 16, 1769476, 16, 1769477, 16, 1769478, 16, 1769479, 16, 1769480, 16, 1769481, 16, 1769482, 16, 1769483, 16, 1769484, 16, 1769485, 16, 1769486, 16, 1769487, 16, 1769488, 16, 1769489, 16, 1769490, 16, 1769491, 16, 1769492, 16, 1835022, 16, 1835023, 16, 1835024, 16, 1835025, 16, 1835026, 16, 1900558, 16, 1900559, 16, 1900560, 16, 1900561, 16, 1900562, 16 )

[node name="Demarcacion" type="TileMap" parent="Calles"]

mode = 0
tile_set = ExtResource( 7 )
cell/size = Vector2( 48, 48 )
cell/quadrant_size = 48
cell/custom_transform = Matrix32( 1, 0, 0, 1, 0, 0 )
cell/half_offset = 2
cell/tile_origin = 0
cell/y_sort = false
collision/use_kinematic = false
collision/friction = 1.0
collision/bounce = 0.0
collision/layers = 1
collision/mask = 1
occluder/light_mask = 1
tile_data = IntArray( 65525, 45, 65529, 45, 16, 64, 131062, 45, 131063, 45, 131066, 45, 196598, 45, 196599, 45, 196600, 45, 196601, 45, 131088, 64, 262133, 45, 262135, 45, 327669, 45, 327670, 45, 262160, 64, 393205, 45, 393207, 45, 393209, 80, 393210, 80, 327680, 80, 327681, 80, 458741, 45, 393228, 83, 393232, 64, 524278, 45, 524281, 80, 524282, 80, 458752, 80, 458753, 80, 458755, 80, 458756, 80, 458761, 80, 458762, 80, 458763, 42, 458765, 42, 589813, 45, 589814, 45, 589815, 45, 524299, 42, 524301, 42, 524304, 64, 655349, 45, 655350, 45, 655351, 45, 655353, 80, 655354, 80, 589824, 80, 589825, 80, 589827, 80, 589828, 80, 589833, 80, 589834, 80, 720885, 45, 720886, 45, 655373, 64, 655376, 64, 786422, 45, 851957, 45, 851958, 45, 786448, 64, 917493, 45, 851979, 45, 983029, 45, 983030, 45, 917515, 45, 917520, 64, 1048565, 45, 983051, 45, 1114101, 45, 1114102, 45, 1048587, 45, 1048592, 64, 1179637, 45, 1179638, 45, 1179639, 45, 1114123, 45, 1245173, 45, 1245174, 45, 1179659, 45, 1179664, 64, 1310709, 45, 1245195, 45, 1310731, 45, 1310736, 64, 1376270, 80, 1376271, 80, 1441806, 84, 1441807, 84, 1441808, 84, 1441809, 84, 1441810, 84, 1507341, 100, 1507347, 100, 1507348, 64, 1572877, 100, 1572883, 100, 1572884, 64, 1703925, 80, 1703927, 80, 1703929, 80, 1703931, 80, 1703933, 80, 1703935, 80, 1638401, 80, 1638403, 80, 1638405, 80, 1638407, 80, 1638409, 80, 1638411, 80, 1638413, 100, 1638416, 127, 1638419, 100, 1703948, 64, 1703949, 100, 1703955, 100, 1769484, 64, 1769485, 100, 1769491, 100, 1835022, 84, 1835023, 84, 1835024, 84, 1835025, 84, 1835026, 84, 1900561, 80, 1900562, 80 )

[node name="Flores" type="TileMap" parent="Calles"]

mode = 0
tile_set = ExtResource( 9 )
cell/size = Vector2( 48, 48 )
cell/quadrant_size = 48
cell/custom_transform = Matrix32( 1, 0, 0, 1, 0, 0 )
cell/half_offset = 2
cell/tile_origin = 0
cell/y_sort = false
collision/use_kinematic = false
collision/friction = 1.0
collision/bounce = 0.0
collision/layers = 1
collision/mask = 1
occluder/light_mask = 1
tile_data = IntArray( 1, 67, 9, 65, 10, 64, 131067, 65, 65546, 65, 131079, 67, 262136, 67, 196613, 80, 327672, 67, 327683, 80, 327684, 65, 327690, 65, 851959, 67, 851960, 67, 983037, 80, 983038, 64, 917505, 65, 917508, 65, 917514, 80, 1114110, 80, 1245190, 64, 1376250, 67 )

[node name="Decoracion" type="TileMap" parent="Calles"]

mode = 0
tile_set = ExtResource( 7 )
cell/size = Vector2( 48, 48 )
cell/quadrant_size = 48
cell/custom_transform = Matrix32( 1, 0, 0, 1, 0, 0 )
cell/half_offset = 2
cell/tile_origin = 0
cell/y_sort = false
collision/use_kinematic = false
collision/friction = 1.0
collision/bounce = 0.0
collision/layers = 1
collision/mask = 1
occluder/light_mask = 1
tile_data = IntArray( 65526, 29, 65527, 29, 65530, 29, 2, 14, 3, 15, 131062, 29, 131063, 29, 131064, 29, 131065, 29, 65555, 165, 196597, 29, 196599, 29, 131075, 166, 131091, 181, 262133, 29, 262134, 29, 196611, 182, 327669, 29, 327671, 29, 393205, 29, 327680, 138, 327681, 139, 458742, 29, 393216, 154, 393217, 155, 393227, 26, 393229, 26, 524277, 29, 524278, 29, 524279, 29, 524285, 127, 458763, 26, 458765, 26, 589813, 29, 589814, 29, 589815, 29, 524288, 141, 524289, 142, 524291, 536871070, 524292, 536871069, 524297, 125, 524298, 126, 524299, 26, 524301, 26, 655349, 29, 655350, 29, 589835, 42, 589837, 42, 720886, 29, 720889, 165, 786421, 29, 786422, 29, 786425, 181, 720915, 165, 851957, 29, 786432, 29, 786433, 29, 786434, 29, 786435, 29, 786436, 29, 786437, 29, 786438, 29, 786439, 29, 786440, 29, 786441, 29, 786442, 29, 786443, 29, 786451, 181, 917493, 29, 917494, 29, 851979, 29, 983029, 29, 983033, 90, 917515, 29, 917517, 165, 1048565, 29, 1048566, 29, 983051, 29, 983053, 181, 1114101, 29, 1114102, 29, 1114103, 29, 1048587, 29, 1179637, 29, 1179638, 29, 1179645, 29, 1179646, 29, 1114123, 29, 1245173, 29, 1245181, 45, 1245182, 45, 1179659, 29, 1310714, 116, 1245191, 27, 1245192, 27, 1245195, 29, 1310726, 9, 1310727, 43, 1310728, 43, 1310733, 81, 1441784, 165, 1376260, 165, 1376269, 97, 1376276, 82, 1507320, 181, 1441796, 181, 1441812, 98, 1638410, 136, 1638411, 137, 1703946, 152, 1703947, 153, 1769484, 81, 1900542, 165, 1835018, 165, 1835020, 97, 1835027, 82, 1966078, 181, 1900554, 181, 1900563, 98 )

[node name="Decoracion2" type="TileMap" parent="Calles"]

mode = 0
tile_set = ExtResource( 9 )
cell/size = Vector2( 48, 48 )
cell/quadrant_size = 48
cell/custom_transform = Matrix32( 1, 0, 0, 1, 0, 0 )
cell/half_offset = 2
cell/tile_origin = 0
cell/y_sort = false
collision/use_kinematic = false
collision/friction = 1.0
collision/bounce = 0.0
collision/layers = 1
collision/mask = 1
occluder/light_mask = 1
tile_data = IntArray( 6, 35, 7, 36, 65544, 4, 65545, 5, 131076, 97, 131080, 20, 131081, 21, 196612, 113, 262152, 51, 262153, 52, 393219, 68, 393220, 69, 393221, 70, 393224, 68, 393225, 69, 393226, 70, 917495, 98, 917496, 99, 917497, 99, 917498, 99, 917499, 99, 917500, 99, 917501, 99, 917502, 99, 917503, 100, 983039, 116, 917506, 35, 917507, 36, 917509, 35, 917510, 36, 1048575, 116, 983048, 2, 983049, 3, 1114111, 116, 1048584, 18, 1048585, 19, 1179647, 116, 1245183, 116, 1310719, 116, 1376245, 130, 1376246, 99, 1376247, 99, 1376248, 99, 1376249, 132, 1376251, 130, 1376252, 99, 1376253, 99, 1376254, 99, 1376255, 132 )

[node name="JuanCarlos" type="Sprite" parent="Calles"]

editor/display_folded = true
transform/pos = Vector2( -263, 984 )
texture = ExtResource( 10 )
flip_h = true
region = true
region_rect = Rect2( 48, 0, 48, 48 )

[node name="StaticBody2D" type="StaticBody2D" parent="Calles/JuanCarlos"]

input/pickable = false
shapes/0/shape = SubResource( 1 )
shapes/0/transform = Matrix32( 1, 0, 0, 0.677866, 0, 14.63 )
shapes/0/trigger = false
collision/layers = 1
collision/mask = 1
constant_linear_velocity = Vector2( 0, 0 )
constant_angular_velocity = 0.0
friction = 1.0
bounce = 0.0

[node name="CollisionPolygon2D" type="CollisionPolygon2D" parent="Calles/JuanCarlos/StaticBody2D"]

transform/pos = Vector2( 0, 14.63 )
transform/scale = Vector2( 1, 0.677866 )
build_mode = 0
polygon = Vector2Array( -25, -24, 23, -24, 23, 24, -25, 24 )
shape_range = Vector2( 0, 0 )
trigger = false

[node name="Caminar" type="Node2D" parent="Calles"]

[node name="DecoracionSobrepuesta" type="TileMap" parent="Calles"]

mode = 0
tile_set = ExtResource( 9 )
cell/size = Vector2( 48, 48 )
cell/quadrant_size = 48
cell/custom_transform = Matrix32( 1, 0, 0, 1, 0, 0 )
cell/half_offset = 2
cell/tile_origin = 0
cell/y_sort = false
collision/use_kinematic = false
collision/friction = 1.0
collision/bounce = 0.0
collision/layers = 1
collision/mask = 1
occluder/light_mask = 1
tile_data = IntArray( 65544, 4, 65545, 5, 131076, 97, 983048, 2, 983049, 3 )

[node name="DecoracionSobrepuesta2" type="TileMap" parent="Calles"]

mode = 0
tile_set = ExtResource( 7 )
cell/size = Vector2( 48, 48 )
cell/quadrant_size = 48
cell/custom_transform = Matrix32( 1, 0, 0, 1, 0, 0 )
cell/half_offset = 2
cell/tile_origin = 0
cell/y_sort = false
collision/use_kinematic = false
collision/friction = 1.0
collision/bounce = 0.0
collision/layers = 1
collision/mask = 1
occluder/light_mask = 1
tile_data = IntArray( 65530, 29, 65555, 165, 131075, 166, 131091, 181, 196611, 182, 327671, 29, 393205, 29, 458742, 29, 524279, 29, 720889, 165, 786425, 181, 720915, 165, 786432, 29, 786433, 29, 786434, 29, 786435, 29, 786436, 29, 786437, 29, 786438, 29, 786439, 29, 786440, 29, 786441, 29, 786442, 29, 786443, 29, 786451, 181, 917494, 29, 917517, 165, 983053, 181, 1245191, 27, 1245192, 27, 1376250, 0, 1310733, 81, 1441784, 165, 1441786, 0, 1376260, 165, 1376269, 97, 1376276, 82, 1507320, 181, 1441796, 181, 1441812, 98, 1769484, 81, 1900542, 165, 1835018, 165, 1835020, 97, 1835027, 82, 1966078, 181, 1900554, 181, 1900563, 98 )

[node name="BloqueoCiudad" type="TileMap" parent="."]

visibility/visible = false
transform/pos = Vector2( -384, 96 )
mode = 0
tile_set = ExtResource( 11 )
cell/size = Vector2( 48, 48 )
cell/quadrant_size = 48
cell/custom_transform = Matrix32( 1, 0, 0, 1, 0, 0 )
cell/half_offset = 2
cell/tile_origin = 0
cell/y_sort = false
collision/use_kinematic = false
collision/friction = 1.0
collision/bounce = 0.0
collision/layers = 1
collision/mask = 1
occluder/light_mask = 1
tile_data = IntArray( -131076, 0, -131075, 0, -131074, 0, -131073, 0, -196608, 0, -196607, 0, -196606, 0, -196605, 0, -196604, 0, -196603, 0, -196602, 0, -196601, 0, -196600, 0, -196599, 0, -196598, 0, -196597, 0, -196596, 0, -196595, 0, -196594, 0, -196593, 0, -196592, 0, -196591, 0, -196590, 0, -196589, 0, -196588, 0, -196587, 0, -196586, 0, -196585, 0, -196584, 0, -196583, 0, -196582, 0, -196581, 0, -196580, 0, -196579, 0, -65540, 0, -131068, 0, -131067, 0, -131066, 0, -131065, 0, -131064, 0, -131053, 0, -131052, 0, -131051, 0, -131043, 0, -12, 0, -11, 0, -10, 0, -9, 0, -8, 0, -7, 0, -6, 0, -5, 0, -4, 0, -3, 0, -2, 0, -1, 0, -65536, 0, -65535, 0, -65534, 0, -65532, 0, -65531, 0, -65530, 0, -65529, 0, -65528, 0, -65517, 0, -65516, 0, -65515, 0, -65507, 0, 65524, 0, 65532, 0, 65533, 0, 65534, 0, 65535, 0, 0, 0, 4, 0, 5, 0, 6, 0, 7, 0, 8, 0, 19, 0, 20, 0, 21, 0, 29, 0, 131060, 0, 131068, 0, 131069, 0, 131070, 0, 131071, 0, 65540, 0, 65541, 0, 65543, 0, 65544, 0, 65555, 0, 65556, 0, 65557, 0, 65565, 0, 196596, 0, 196604, 0, 196605, 0, 196606, 0, 196607, 0, 131091, 0, 131092, 0, 131093, 0, 131101, 0, 262132, 0, 262140, 0, 262141, 0, 262143, 0, 196627, 0, 196628, 0, 196629, 0, 196637, 0, 327668, 0, 327676, 0, 262163, 0, 262165, 0, 262173, 0, 393204, 0, 393212, 0, 327709, 0, 458740, 0, 458748, 0, 393245, 0, 524276, 0, 524284, 0, 458781, 0, 589812, 0, 589820, 0, 524317, 0, 655348, 0, 655356, 0, 589853, 0, 720884, 0, 720892, 0, 655389, 0, 786420, 0, 786428, 0, 786431, 0, 720896, 0, 720897, 0, 720898, 0, 720899, 0, 720900, 0, 720901, 0, 720902, 0, 720903, 0, 720925, 0, 851956, 0, 851964, 0, 786432, 0, 786433, 0, 786434, 0, 786435, 0, 786436, 0, 786439, 0, 786461, 0, 917492, 0, 917500, 0, 851968, 0, 851969, 0, 851970, 0, 851971, 0, 851972, 0, 851975, 0, 851997, 0, 983028, 0, 983032, 0, 983033, 0, 983034, 0, 983035, 0, 983036, 0, 917504, 0, 917505, 0, 917506, 0, 917507, 0, 917508, 0, 917511, 0, 917512, 0, 917513, 0, 917514, 0, 917515, 0, 917516, 0, 917517, 0, 917533, 0, 1048564, 0, 1048568, 0, 1048569, 0, 1048570, 0, 1048571, 0, 1048572, 0, 983040, 0, 983041, 0, 983042, 0, 983043, 0, 983044, 0, 983047, 0, 983048, 0, 983049, 0, 983050, 0, 983051, 0, 983052, 0, 983053, 0, 983069, 0, 1114100, 0, 1114104, 0, 1114105, 0, 1114106, 0, 1114107, 0, 1114108, 0, 1048576, 0, 1048577, 0, 1048578, 0, 1048579, 0, 1048580, 0, 1048581, 0, 1048583, 0, 1048584, 0, 1048585, 0, 1048586, 0, 1048587, 0, 1048588, 0, 1048589, 0, 1048605, 0, 1179636, 0, 1179640, 0, 1179641, 0, 1179642, 0, 1179643, 0, 1179644, 0, 1114112, 0, 1114113, 0, 1114114, 0, 1114115, 0, 1114116, 0, 1114117, 0, 1114119, 0, 1114120, 0, 1114121, 0, 1114122, 0, 1114123, 0, 1114124, 0, 1114125, 0, 1114141, 0, 1245172, 0, 1245176, 0, 1245177, 0, 1245178, 0, 1245179, 0, 1245180, 0, 1245181, 0, 1245182, 0, 1245183, 0, 1179648, 0, 1179649, 0, 1179651, 0, 1179652, 0, 1179653, 0, 1179654, 0, 1179655, 0, 1179656, 0, 1179657, 0, 1179658, 0, 1179659, 0, 1179660, 0, 1179661, 0, 1179677, 0, 1310708, 0, 1310712, 0, 1310713, 0, 1310714, 0, 1310715, 0, 1310716, 0, 1245213, 0, 1376244, 0, 1376252, 0, 1310749, 0, 1441780, 0, 1441788, 0, 1376285, 0, 1507316, 0, 1507324, 0, 1441821, 0, 1572852, 0, 1572860, 0, 1507357, 0, 1638388, 0, 1638396, 0, 1572893, 0, 1703924, 0, 1703932, 0, 1638429, 0, 1769460, 0, 1769468, 0, 1703965, 0, 1834996, 0, 1835004, 0, 1769501, 0, 1900532, 0, 1900540, 0, 1900541, 0, 1900542, 0, 1900543, 0, 1835008, 0, 1835009, 0, 1835010, 0, 1835011, 0, 1835012, 0, 1835013, 0, 1835014, 0, 1835015, 0, 1835016, 0, 1835017, 0, 1835018, 0, 1835019, 0, 1835020, 0, 1835021, 0, 1835022, 0, 1835023, 0, 1835024, 0, 1835025, 0, 1835026, 0, 1835027, 0, 1835028, 0, 1835029, 0, 1835030, 0, 1835031, 0, 1835032, 0, 1835033, 0, 1835034, 0, 1835035, 0, 1835036, 0, 1835037, 0, 1966068, 0, 1900565, 0, 2031604, 0, 2031605, 0, 2031606, 0, 2031607, 0, 2031608, 0, 2031609, 0, 2031610, 0, 2031611, 0, 2031612, 0, 2031613, 0, 2031614, 0, 2031615, 0, 1966080, 0, 1966081, 0, 1966082, 0, 1966083, 0, 1966084, 0, 1966085, 0, 1966086, 0, 1966087, 0, 1966088, 0, 1966089, 0, 1966090, 0, 1966091, 0, 1966092, 0, 1966093, 0, 1966094, 0, 1966095, 0, 1966096, 0, 1966097, 0, 1966098, 0, 1966099, 0, 1966100, 0, 1966101, 0 )

[node name="AreaCasaFrancisco" type="Area2D" parent="."]

editor/display_folded = true
input/pickable = true
shapes/0/shape = SubResource( 2 )
shapes/0/transform = Matrix32( 1.84615, 0, 0, 0.470588, 600, 303.136 )
shapes/0/trigger = false
gravity_vec = Vector2( 0, 1 )
gravity = 98.0
linear_damp = 0.1
angular_damp = 1.0

[node name="CollisionShape2D" type="CollisionShape2D" parent="AreaCasaFrancisco"]

transform/pos = Vector2( 600, 303.136 )
transform/scale = Vector2( 1.84615, 0.470588 )
shape = SubResource( 2 )
trigger = false
_update_shape_index = 0

[node name="AreaColegioFrancisco" type="Area2D" parent="."]

editor/display_folded = true
input/pickable = true
shapes/0/shape = SubResource( 3 )
shapes/0/transform = Matrix32( 1, 0, 0, 0.664211, -71.9998, 157.634 )
shapes/0/trigger = false
gravity_vec = Vector2( 0, 1 )
gravity = 98.0
linear_damp = 0.1
angular_damp = 1.0

[node name="CollisionShape2D" type="CollisionShape2D" parent="AreaColegioFrancisco"]

transform/pos = Vector2( -71.9998, 157.634 )
transform/scale = Vector2( 1, 0.664211 )
shape = SubResource( 3 )
trigger = false
_update_shape_index = 0

[node name="InteraccionJuanCarlos" type="Area2D" parent="."]

editor/display_folded = true
transform/pos = Vector2( -190.854, 863.387 )
input/pickable = true
shapes/0/shape = SubResource( 3 )
shapes/0/transform = Matrix32( 1, 0, 0, 1.0869, -71.9998, 163.129 )
shapes/0/trigger = false
gravity_vec = Vector2( 0, 1 )
gravity = 98.0
linear_damp = 0.1
angular_damp = 1.0

[node name="CollisionShape2D" type="CollisionShape2D" parent="InteraccionJuanCarlos"]

transform/pos = Vector2( -71.9998, 163.129 )
transform/scale = Vector2( 1, 1.0869 )
shape = SubResource( 3 )
trigger = false
_update_shape_index = 0

[node name="StreamPlayer" type="StreamPlayer" parent="."]

stream/stream = ExtResource( 12 )
stream/play = false
stream/loop = true
stream/volume_db = 0.0
stream/autoplay = true
stream/paused = false
stream/loop_restart_time = 0.0
stream/buffering_ms = 500

[connection signal="area_enter" from="AreaCasaFrancisco" to="." method="_on_AreaCasaFrancisco_area_enter"]

[connection signal="area_enter" from="AreaColegioFrancisco" to="." method="_on_AreaColegioFrancisco_area_enter"]

[connection signal="area_enter" from="InteraccionJuanCarlos" to="." method="_on_InteraccionJuanCarlos_area_enter"]

[connection signal="area_exit" from="InteraccionJuanCarlos" to="." method="_on_InteraccionJuanCarlos_area_exit"]


